{
  "blocks": {
    "page": [],
    "btn": [],
    "logo": [],
    "dropcap": [],
    "svg-icon": [],
    "date": [],
    "external-link": [],
    "sprite-png": [
      "__include"
    ],
    "sprite-svg": [],
    "table": [],
    "form": [],
    "field-text": [],
    "field-radio": [],
    "field-select": [],
    "field-checkbox": [],
    "field-toggler": [],
    "field-actions": [],
    "page-header": [],
    "page-footer": [],
    "breadcrumbs": [],
    "pagination": [],
    "owl-carousel": [],
    "slick-carousel": [],
    "hamburger": [],
    "main-nav": [],
    "style-guide": [],
    "scroll-link": [],
    "promo": [],
    "testimonials": [],
    "social": [],
    "mobile-menu": [],
    "promo-projects": [],
    "main-subtitle": [],
    "section": [],
    "project-card": [],
    "promo-about": [],
    "advantages": [],
    "promo-news": [],
    "news-card": [],
    "promo-partners": [],
    "about-us": [],
    "gallery": [],
    "article": [],
    "contacts": [],
    "project-info": []
  },
  "addCssBefore": [
    "./src/scss/reset.scss",
    "./src/scss/mixins.scss",
    "./src/scss/variables.scss",
    "./src/scss/fonts.scss",
    "./src/scss/global.scss",
    "./src/scss/typography.scss"
  ],
  "addCssAfter": [
    "./src/scss/print.scss"
  ],
  "singleCompiled": [],
  "addJsBefore": [
    "./node_modules/svg4everybody/dist/svg4everybody.min.js"
  ],
  "addJsAfter": [
    "./src/js/script.js"
  ],
  "copiedCss": [],
  "copiedJs": [],
  "addImages": [
    "./src/img/*.{jpg,jpeg,gif,png,svg,ico}"
  ],
  "directories": {
    "source": "./src/",
    "build": "./dist/",
    "blocksDirName": "blocks"
  }
}